Suite/Test/Step Name,Browser,Description,Tag,Start time,End time,Duration,Status
Non Gherkin Daftar Transaksi,Chrome 114.0.0.0,,,2023-07-03 13:35:33,2023-07-03 13:36:02,29.697s,PASSED
,,,,,,,
Test Cases/Samuel/Step Definition/Feature Daftar Transaksi/DAF01 - User wants to see the interaction or transaction of their product,Chrome 114.0.0.0,,,2023-07-03 13:35:37,2023-07-03 13:35:48,10.907s,PASSED
Start listener action : beforeTestCase,Chrome 114.0.0.0,,,2023-07-03 13:35:37,2023-07-03 13:35:41,3.270s,PASSED
"callTestCase(findTestCase(""Samuel/Pages/Daftar Transaksi/LoginUserWithTransaction""), [:], STOP_ON_FAILURE)",Chrome 114.0.0.0,,,2023-07-03 13:35:41,2023-07-03 13:35:44,3.097s,PASSED
"callTestCase(findTestCase(""Samuel/Pages/Daftar Transaksi/NavigateToDaftarTransaksi""), [:], STOP_ON_FAILURE)",Chrome 114.0.0.0,,,2023-07-03 13:35:44,2023-07-03 13:35:46,1.649s,PASSED
"callTestCase(findTestCase(""Samuel/Pages/Daftar Transaksi/VerifyAvailTransactionn""), [:], STOP_ON_FAILURE)",Chrome 114.0.0.0,,,2023-07-03 13:35:46,2023-07-03 13:35:48,1.907s,PASSED
Start listener action : afterTestCase,Chrome 114.0.0.0,,,2023-07-03 13:35:48,2023-07-03 13:35:48,0.669s,PASSED
,,,,,,,
Test Cases/Samuel/Step Definition/Feature Daftar Transaksi/DAF02 - User does not have a product interaction or transaction,Chrome 114.0.0.0,,,2023-07-03 13:35:48,2023-07-03 13:36:02,14.202s,PASSED
Start listener action : beforeTestCase,Chrome 114.0.0.0,,,2023-07-03 13:35:48,2023-07-03 13:35:51,2.525s,PASSED
"callTestCase(findTestCase(""Samuel/Pages/Daftar Transaksi/LoginUserEmptyTransaction""), [:], STOP_ON_FAILURE)",Chrome 114.0.0.0,,,2023-07-03 13:35:51,2023-07-03 13:35:57,6.464s,PASSED
"callTestCase(findTestCase(""Samuel/Pages/Daftar Transaksi/NavigateToDaftarTransaksi""), [:], STOP_ON_FAILURE)",Chrome 114.0.0.0,,,2023-07-03 13:35:57,2023-07-03 13:35:59,1.696s,PASSED
"callTestCase(findTestCase(""Samuel/Pages/Daftar Transaksi/VerifyEmptyTransaction""), [:], STOP_ON_FAILURE)",Chrome 114.0.0.0,,,2023-07-03 13:35:59,2023-07-03 13:36:02,2.567s,PASSED
Start listener action : afterTestCase,Chrome 114.0.0.0,,,2023-07-03 13:36:02,2023-07-03 13:36:02,0.663s,PASSED
