Suite/Test/Step Name,Browser,Description,Tag,Start time,End time,Duration,Status
Registration Positive,Chrome 114.0.0.0,,,2023-06-30 18:25:28,2023-06-30 18:25:48,19.315s,PASSED
,,,,,,,
Test Cases/Andreas/Step Definition/Feature Registration/REG01 - User want to regist using correct credentials,Chrome 114.0.0.0,,,2023-06-30 18:25:33,2023-06-30 18:25:48,14.064s,PASSED
Start listener action : beforeTestCase,Chrome 114.0.0.0,,,2023-06-30 18:25:34,2023-06-30 18:25:37,3.043s,PASSED
"callTestCase(findTestCase(""Andreas/Function/Registration Page/Click Masuk Homepage""), [:], STOP_ON_FAILURE)",Chrome 114.0.0.0,,,2023-06-30 18:25:37,2023-06-30 18:25:38,1.016s,PASSED
"callTestCase(findTestCase(""Andreas/Function/Registration Page/Click Daftar Loginpage""), [:], STOP_ON_FAILURE)",Chrome 114.0.0.0,,,2023-06-30 18:25:38,2023-06-30 18:25:40,1.297s,PASSED
"callTestCase(findTestCase(""Andreas/Function/Registration Page/Input Nama Lengkap""), [""nama"":nama_def], STOP_ON_FAILURE)",Chrome 114.0.0.0,,,2023-06-30 18:25:40,2023-06-30 18:25:42,2.019s,PASSED
"callTestCase(findTestCase(""Andreas/Function/Registration Page/Input Random Email""), [""email"":email], STOP_ON_FAILURE)",Chrome 114.0.0.0,,,2023-06-30 18:25:42,2023-06-30 18:25:43,1.530s,PASSED
"callTestCase(findTestCase(""Andreas/Function/Registration Page/Input Password""), [""password"":password_def], STOP_ON_FAILURE)",Chrome 114.0.0.0,,,2023-06-30 18:25:43,2023-06-30 18:25:45,1.498s,PASSED
"callTestCase(findTestCase(""Andreas/Function/Registration Page/Click Daftar Registpage""), [:], STOP_ON_FAILURE)",Chrome 114.0.0.0,,,2023-06-30 18:25:45,2023-06-30 18:25:46,1.210s,PASSED
"callTestCase(findTestCase(""Andreas/Function/Registration Page/Verify Success""), [:], STOP_ON_FAILURE)",Chrome 114.0.0.0,,,2023-06-30 18:25:46,2023-06-30 18:25:47,1.020s,PASSED
Start listener action : afterTestCase,Chrome 114.0.0.0,,,2023-06-30 18:25:47,2023-06-30 18:25:48,0.711s,PASSED
