Suite/Test/Step Name,Browser,Description,Tag,Start time,End time,Duration,Status
Registration Negative,Chrome 114.0.0.0,,,2023-06-16 00:54:53,2023-06-16 00:55:21,27.449s,PASSED
,,,,,,,
"Test Cases/Andreas/Step Definition/Feature Registration/REG02 - User want to register, but all fields are empty",Chrome 114.0.0.0,,,2023-06-16 00:54:57,2023-06-16 00:55:07,10.008s,PASSED
Start listener action : beforeTestCase,Chrome 114.0.0.0,,,2023-06-16 00:54:57,2023-06-16 00:54:59,2.742s,PASSED
"callTestCase(findTestCase(""Andreas/Function/Registration Page/Click Masuk Homepage""), [:], STOP_ON_FAILURE)",Chrome 114.0.0.0,,,2023-06-16 00:55:00,2023-06-16 00:55:00,0.725s,PASSED
"callTestCase(findTestCase(""Andreas/Function/Registration Page/Click Daftar Loginpage""), [:], STOP_ON_FAILURE)",Chrome 114.0.0.0,,,2023-06-16 00:55:00,2023-06-16 00:55:01,0.732s,PASSED
"callTestCase(findTestCase(""Andreas/Function/Registration Page/Input Nama Lengkap""), [""nama"":nama], STOP_ON_FAILURE)",Chrome 114.0.0.0,,,2023-06-16 00:55:01,2023-06-16 00:55:02,1.111s,PASSED
"callTestCase(findTestCase(""Andreas/Function/Registration Page/Input Email""), [""email"":email], STOP_ON_FAILURE)",Chrome 114.0.0.0,,,2023-06-16 00:55:02,2023-06-16 00:55:03,0.675s,PASSED
"callTestCase(findTestCase(""Andreas/Function/Registration Page/Input Password""), [""password"":password], STOP_ON_FAILURE)",Chrome 114.0.0.0,,,2023-06-16 00:55:03,2023-06-16 00:55:04,1.011s,PASSED
"callTestCase(findTestCase(""Andreas/Function/Registration Page/Click Daftar Registpage""), [:], STOP_ON_FAILURE)",Chrome 114.0.0.0,,,2023-06-16 00:55:04,2023-06-16 00:55:05,0.744s,PASSED
"callTestCase(findTestCase(""Andreas/Function/Registration Page/Veriify Failed""), [:], STOP_ON_FAILURE)",Chrome 114.0.0.0,,,2023-06-16 00:55:05,2023-06-16 00:55:06,1.084s,PASSED
Start listener action : afterTestCase,Chrome 114.0.0.0,,,2023-06-16 00:55:06,2023-06-16 00:55:07,0.711s,PASSED
,,,,,,,
Test Cases/Andreas/Step Definition/Feature Registration/REG03 - User want to register using incorrect email format,Chrome 114.0.0.0,,,2023-06-16 00:55:07,2023-06-16 00:55:13,6.891s,PASSED
Start listener action : beforeTestCase,Chrome 114.0.0.0,,,2023-06-16 00:55:07,2023-06-16 00:55:08,1.910s,PASSED
"callTestCase(findTestCase(""Andreas/Function/Registration Page/Click Masuk Homepage""), [:], STOP_ON_FAILURE)",Chrome 114.0.0.0,,,2023-06-16 00:55:09,2023-06-16 00:55:09,0.403s,PASSED
"callTestCase(findTestCase(""Andreas/Function/Registration Page/Click Daftar Loginpage""), [:], STOP_ON_FAILURE)",Chrome 114.0.0.0,,,2023-06-16 00:55:09,2023-06-16 00:55:10,0.554s,PASSED
"callTestCase(findTestCase(""Andreas/Function/Registration Page/Input Nama Lengkap""), [""nama"":nama_def], STOP_ON_FAILURE)",Chrome 114.0.0.0,,,2023-06-16 00:55:10,2023-06-16 00:55:11,0.930s,PASSED
"callTestCase(findTestCase(""Andreas/Function/Registration Page/Input Email""), [""email"":email], STOP_ON_FAILURE)",Chrome 114.0.0.0,,,2023-06-16 00:55:11,2023-06-16 00:55:11,0.436s,PASSED
"callTestCase(findTestCase(""Andreas/Function/Registration Page/Input Password""), [""password"":password_def], STOP_ON_FAILURE)",Chrome 114.0.0.0,,,2023-06-16 00:55:11,2023-06-16 00:55:12,0.737s,PASSED
"callTestCase(findTestCase(""Andreas/Function/Registration Page/Click Daftar Registpage""), [:], STOP_ON_FAILURE)",Chrome 114.0.0.0,,,2023-06-16 00:55:12,2023-06-16 00:55:12,0.433s,PASSED
"callTestCase(findTestCase(""Andreas/Function/Registration Page/Veriify Failed""), [:], STOP_ON_FAILURE)",Chrome 114.0.0.0,,,2023-06-16 00:55:12,2023-06-16 00:55:13,0.430s,PASSED
Start listener action : afterTestCase,Chrome 114.0.0.0,,,2023-06-16 00:55:13,2023-06-16 00:55:13,0.743s,PASSED
,,,,,,,
Test Cases/Andreas/Step Definition/Feature Registration/REG04 - User want to register using registered email,Chrome 114.0.0.0,,,2023-06-16 00:55:13,2023-06-16 00:55:21,7.058s,PASSED
Start listener action : beforeTestCase,Chrome 114.0.0.0,,,2023-06-16 00:55:13,2023-06-16 00:55:15,1.927s,PASSED
"callTestCase(findTestCase(""Andreas/Function/Registration Page/Click Masuk Homepage""), [:], STOP_ON_FAILURE)",Chrome 114.0.0.0,,,2023-06-16 00:55:16,2023-06-16 00:55:16,0.409s,PASSED
"callTestCase(findTestCase(""Andreas/Function/Registration Page/Click Daftar Loginpage""), [:], STOP_ON_FAILURE)",Chrome 114.0.0.0,,,2023-06-16 00:55:16,2023-06-16 00:55:17,0.564s,PASSED
"callTestCase(findTestCase(""Andreas/Function/Registration Page/Input Nama Lengkap""), [""nama"":nama_def], STOP_ON_FAILURE)",Chrome 114.0.0.0,,,2023-06-16 00:55:17,2023-06-16 00:55:17,0.847s,PASSED
"callTestCase(findTestCase(""Andreas/Function/Registration Page/Input Email""), [""email"":email_def], STOP_ON_FAILURE)",Chrome 114.0.0.0,,,2023-06-16 00:55:17,2023-06-16 00:55:18,0.432s,PASSED
"callTestCase(findTestCase(""Andreas/Function/Registration Page/Input Password""), [""password"":password_def], STOP_ON_FAILURE)",Chrome 114.0.0.0,,,2023-06-16 00:55:18,2023-06-16 00:55:19,0.709s,PASSED
"callTestCase(findTestCase(""Andreas/Function/Registration Page/Click Daftar Registpage""), [:], STOP_ON_FAILURE)",Chrome 114.0.0.0,,,2023-06-16 00:55:19,2023-06-16 00:55:19,0.406s,PASSED
"callTestCase(findTestCase(""Andreas/Function/Registration Page/Verify Email Already Used""), [:], STOP_ON_FAILURE)",Chrome 114.0.0.0,,,2023-06-16 00:55:19,2023-06-16 00:55:20,0.785s,PASSED
Start listener action : afterTestCase,Chrome 114.0.0.0,,,2023-06-16 00:55:20,2023-06-16 00:55:21,0.706s,PASSED
