Suite/Test/Step Name,Browser,Description,Tag,Start time,End time,Duration,Status
Non Gherkin Update Product,Chrome 114.0.0.0,,,2023-07-03 12:48:27,2023-07-03 12:49:38,1m - 11.290s,PASSED
,,,,,,,
Test Cases/Samuel/Step Definition/Feature Update Product/UPD01 - User wants to update a product they have,Chrome 114.0.0.0,,,2023-07-03 12:48:31,2023-07-03 12:48:56,24.843s,PASSED
Start listener action : beforeTestCase,Chrome 114.0.0.0,,,2023-07-03 12:48:31,2023-07-03 12:48:35,3.219s,PASSED
"callTestCase(findTestCase(""Samuel/Pages/Login/User Login""), [:], STOP_ON_FAILURE)",Chrome 114.0.0.0,,,2023-07-03 12:48:35,2023-07-03 12:48:39,4.386s,PASSED
"callTestCase(findTestCase(""Samuel/Pages/Update Product/Navigate to Update Product""), [:], STOP_ON_FAILURE)",Chrome 114.0.0.0,,,2023-07-03 12:48:39,2023-07-03 12:48:41,1.620s,PASSED
"callTestCase(findTestCase(""Samuel/Pages/Update Product/Verify Content""), [:], STOP_ON_FAILURE)",Chrome 114.0.0.0,,,2023-07-03 12:48:41,2023-07-03 12:48:43,2.319s,PASSED
"callTestCase(findTestCase(""Samuel/Pages/Update Product/RandomNamaProduct""), [:], STOP_ON_FAILURE)",Chrome 114.0.0.0,,,2023-07-03 12:48:43,2023-07-03 12:48:45,1.637s,PASSED
"updateNamaProduk = getText(findTestObject(""Samuel/UpdateProductPage_SecondHand/field_name""))",Chrome 114.0.0.0,,,2023-07-03 12:48:45,2023-07-03 12:48:45,0.348s,PASSED
"callTestCase(findTestCase(""Samuel/Pages/Update Product/Input Product Price""), [""hargaProduk"":hargaProduk], STOP_ON_FAILURE)",Chrome 114.0.0.0,,,2023-07-03 12:48:45,2023-07-03 12:48:47,1.719s,PASSED
"callTestCase(findTestCase(""Samuel/Pages/Update Product/Input Product Category""), [:], STOP_ON_FAILURE)",Chrome 114.0.0.0,,,2023-07-03 12:48:47,2023-07-03 12:48:48,1.245s,PASSED
"callTestCase(findTestCase(""Samuel/Pages/Update Product/Input Product Description""), [""deskripsiProduk"":deskripsiProduk], STOP_ON_FAILURE)",Chrome 114.0.0.0,,,2023-07-03 12:48:48,2023-07-03 12:48:50,1.540s,PASSED
"callTestCase(findTestCase(""Samuel/Pages/Update Product/Input Product Picture""), [:], STOP_ON_FAILURE)",Chrome 114.0.0.0,,,2023-07-03 12:48:50,2023-07-03 12:48:51,0.904s,PASSED
"callTestCase(findTestCase(""Samuel/Pages/Update Product/Click Preview""), [:], STOP_ON_FAILURE)",Chrome 114.0.0.0,,,2023-07-03 12:48:51,2023-07-03 12:48:53,2.328s,PASSED
"callTestCase(findTestCase(""Samuel/Pages/Update Product/Click Terbitkan di View Product""), [:], STOP_ON_FAILURE)",Chrome 114.0.0.0,,,2023-07-03 12:48:53,2023-07-03 12:48:54,0.812s,PASSED
"callTestCase(findTestCase(""Samuel/Pages/Update Product/Verify View Product Page""), [""namaProduk"":""updateNamaProduk""], STOP_ON_FAILURE)",Chrome 114.0.0.0,,,2023-07-03 12:48:54,2023-07-03 12:48:55,1.263s,PASSED
"verifyTextPresent(updateNamaProduk, false)",Chrome 114.0.0.0,,,2023-07-03 12:48:55,2023-07-03 12:48:55,0.340s,PASSED
Start listener action : afterTestCase,Chrome 114.0.0.0,,,2023-07-03 12:48:55,2023-07-03 12:48:56,0.686s,PASSED
,,,,,,,
Test Cases/Samuel/Step Definition/Feature Update Product/UPD02 - User wants to update without enter any data,Chrome 114.0.0.0,,,2023-07-03 12:48:56,2023-07-03 12:49:17,21.267s,PASSED
Start listener action : beforeTestCase,Chrome 114.0.0.0,,,2023-07-03 12:48:56,2023-07-03 12:48:59,2.583s,PASSED
"callTestCase(findTestCase(""Samuel/Pages/Login/User Login""), [:], STOP_ON_FAILURE)",Chrome 114.0.0.0,,,2023-07-03 12:48:59,2023-07-03 12:49:03,4.044s,PASSED
"callTestCase(findTestCase(""Samuel/Pages/Update Product/Navigate to Update Product""), [:], STOP_ON_FAILURE)",Chrome 114.0.0.0,,,2023-07-03 12:49:03,2023-07-03 12:49:04,1.274s,PASSED
"callTestCase(findTestCase(""Samuel/Pages/Update Product/Verify Content""), [:], STOP_ON_FAILURE)",Chrome 114.0.0.0,,,2023-07-03 12:49:04,2023-07-03 12:49:07,2.115s,PASSED
"callTestCase(findTestCase(""Samuel/Pages/Update Product/Input Product Name""), [""namaProduk"":""""], STOP_ON_FAILURE)",Chrome 114.0.0.0,,,2023-07-03 12:49:07,2023-07-03 12:49:08,1.483s,PASSED
"callTestCase(findTestCase(""Samuel/Pages/Update Product/Input Product Price""), [""hargaProduk"":""""], STOP_ON_FAILURE)",Chrome 114.0.0.0,,,2023-07-03 12:49:08,2023-07-03 12:49:09,1.183s,PASSED
"callTestCase(findTestCase(""Samuel/Pages/Update Product/Input Empty Category""), [:], STOP_ON_FAILURE)",Chrome 114.0.0.0,,,2023-07-03 12:49:09,2023-07-03 12:49:10,1.137s,PASSED
"callTestCase(findTestCase(""Samuel/Pages/Update Product/Input Product Description""), [""deskripsiProduk"":""""], STOP_ON_FAILURE)",Chrome 114.0.0.0,,,2023-07-03 12:49:10,2023-07-03 12:49:12,1.235s,PASSED
"callTestCase(findTestCase(""Samuel/Pages/Update Product/Click Terbitkan""), [:], STOP_ON_FAILURE)",Chrome 114.0.0.0,,,2023-07-03 12:49:12,2023-07-03 12:49:15,3.175s,PASSED
"callTestCase(findTestCase(""Samuel/Pages/Update Product/Verify Empty Fields""), [:], STOP_ON_FAILURE)",Chrome 114.0.0.0,,,2023-07-03 12:49:15,2023-07-03 12:49:17,2.004s,PASSED
Start listener action : afterTestCase,Chrome 114.0.0.0,,,2023-07-03 12:49:17,2023-07-03 12:49:17,0.673s,PASSED
,,,,,,,
"Test Cases/Samuel/Step Definition/Feature Update Product/UPD03 - User wants to update product, but input a negative number in the price field",Chrome 114.0.0.0,,,2023-07-03 12:49:17,2023-07-03 12:49:38,20.520s,PASSED
Start listener action : beforeTestCase,Chrome 114.0.0.0,,,2023-07-03 12:49:17,2023-07-03 12:49:20,2.626s,PASSED
"callTestCase(findTestCase(""Samuel/Pages/Login/User Login""), [:], STOP_ON_FAILURE)",Chrome 114.0.0.0,,,2023-07-03 12:49:20,2023-07-03 12:49:24,3.976s,PASSED
"callTestCase(findTestCase(""Samuel/Pages/Update Product/Navigate to Update Product""), [:], STOP_ON_FAILURE)",Chrome 114.0.0.0,,,2023-07-03 12:49:24,2023-07-03 12:49:26,1.464s,PASSED
"callTestCase(findTestCase(""Samuel/Pages/Update Product/Verify Content""), [:], STOP_ON_FAILURE)",Chrome 114.0.0.0,,,2023-07-03 12:49:26,2023-07-03 12:49:28,2.173s,PASSED
"callTestCase(findTestCase(""Samuel/Pages/Update Product/RandomNamaProduct""), [:], STOP_ON_FAILURE)",Chrome 114.0.0.0,,,2023-07-03 12:49:28,2023-07-03 12:49:29,1.254s,PASSED
"namaProdukUpdate = getText(findTestObject(""Samuel/UpdateProductPage_SecondHand/field_name""))",Chrome 114.0.0.0,,,2023-07-03 12:49:29,2023-07-03 12:49:30,0.345s,PASSED
"callTestCase(findTestCase(""Samuel/Pages/Update Product/Input Product Negative Price""), [""hargaProduk"":""""], STOP_ON_FAILURE)",Chrome 114.0.0.0,,,2023-07-03 12:49:30,2023-07-03 12:49:31,1.492s,PASSED
"callTestCase(findTestCase(""Samuel/Pages/Update Product/Input Product Category""), [:], STOP_ON_FAILURE)",Chrome 114.0.0.0,,,2023-07-03 12:49:31,2023-07-03 12:49:32,0.880s,PASSED
"callTestCase(findTestCase(""Samuel/Pages/Update Product/Input Product Description""), [""deskripsiProduk"":deskripsiProduk], STOP_ON_FAILURE)",Chrome 114.0.0.0,,,2023-07-03 12:49:32,2023-07-03 12:49:33,1.261s,PASSED
"callTestCase(findTestCase(""Samuel/Pages/Update Product/Input Product Picture""), [:], STOP_ON_FAILURE)",Chrome 114.0.0.0,,,2023-07-03 12:49:33,2023-07-03 12:49:33,0.001s,NOT_RUN
"callTestCase(findTestCase(""Samuel/Pages/Update Product/Click Preview""), [:], STOP_ON_FAILURE)",Chrome 114.0.0.0,,,2023-07-03 12:49:33,2023-07-03 12:49:36,2.758s,PASSED
"callTestCase(findTestCase(""Samuel/Pages/Update Product/Click Terbitkan di View Product""), [:], STOP_ON_FAILURE)",Chrome 114.0.0.0,,,2023-07-03 12:49:36,2023-07-03 12:49:37,0.538s,PASSED
"verifyTextPresent(namaProdukUpdate, false)",Chrome 114.0.0.0,,,2023-07-03 12:49:37,2023-07-03 12:49:37,0.754s,PASSED
Start listener action : afterTestCase,Chrome 114.0.0.0,,,2023-07-03 12:49:37,2023-07-03 12:49:38,0.666s,PASSED
