Suite/Test/Step Name,Browser,Description,Tag,Start time,End time,Duration,Status
Registration Negative,Chrome 114.0.0.0,,,2023-06-16 19:54:34,2023-06-16 19:55:03,29.332s,PASSED
,,,,,,,
"Test Cases/Andreas/Step Definition/Feature Registration/REG02 - User want to register, but all fields are empty",Chrome 114.0.0.0,,,2023-06-16 19:54:38,2023-06-16 19:54:48,10.226s,PASSED
Start listener action : beforeTestCase,Chrome 114.0.0.0,,,2023-06-16 19:54:38,2023-06-16 19:54:41,2.718s,PASSED
"callTestCase(findTestCase(""Andreas/Function/Registration Page/Click Masuk Homepage""), [:], STOP_ON_FAILURE)",Chrome 114.0.0.0,,,2023-06-16 19:54:41,2023-06-16 19:54:42,0.753s,PASSED
"callTestCase(findTestCase(""Andreas/Function/Registration Page/Click Daftar Loginpage""), [:], STOP_ON_FAILURE)",Chrome 114.0.0.0,,,2023-06-16 19:54:42,2023-06-16 19:54:43,0.788s,PASSED
"callTestCase(findTestCase(""Andreas/Function/Registration Page/Input Nama Lengkap""), [""nama"":nama], STOP_ON_FAILURE)",Chrome 114.0.0.0,,,2023-06-16 19:54:43,2023-06-16 19:54:44,1.105s,PASSED
"callTestCase(findTestCase(""Andreas/Function/Registration Page/Input Email""), [""email"":email], STOP_ON_FAILURE)",Chrome 114.0.0.0,,,2023-06-16 19:54:44,2023-06-16 19:54:45,0.674s,PASSED
"callTestCase(findTestCase(""Andreas/Function/Registration Page/Input Password""), [""password"":password], STOP_ON_FAILURE)",Chrome 114.0.0.0,,,2023-06-16 19:54:45,2023-06-16 19:54:46,1.025s,PASSED
"callTestCase(findTestCase(""Andreas/Function/Registration Page/Click Daftar Registpage""), [:], STOP_ON_FAILURE)",Chrome 114.0.0.0,,,2023-06-16 19:54:46,2023-06-16 19:54:46,0.723s,PASSED
"callTestCase(findTestCase(""Andreas/Function/Registration Page/Veriify Failed""), [:], STOP_ON_FAILURE)",Chrome 114.0.0.0,,,2023-06-16 19:54:46,2023-06-16 19:54:48,1.222s,PASSED
Start listener action : afterTestCase,Chrome 114.0.0.0,,,2023-06-16 19:54:48,2023-06-16 19:54:48,0.724s,PASSED
,,,,,,,
Test Cases/Andreas/Step Definition/Feature Registration/REG03 - User want to register using incorrect email format,Chrome 114.0.0.0,,,2023-06-16 19:54:48,2023-06-16 19:54:56,7.773s,PASSED
Start listener action : beforeTestCase,Chrome 114.0.0.0,,,2023-06-16 19:54:48,2023-06-16 19:54:50,1.940s,PASSED
"callTestCase(findTestCase(""Andreas/Function/Registration Page/Click Masuk Homepage""), [:], STOP_ON_FAILURE)",Chrome 114.0.0.0,,,2023-06-16 19:54:51,2023-06-16 19:54:51,0.411s,PASSED
"callTestCase(findTestCase(""Andreas/Function/Registration Page/Click Daftar Loginpage""), [:], STOP_ON_FAILURE)",Chrome 114.0.0.0,,,2023-06-16 19:54:51,2023-06-16 19:54:52,0.623s,PASSED
"callTestCase(findTestCase(""Andreas/Function/Registration Page/Input Nama Lengkap""), [""nama"":nama_def], STOP_ON_FAILURE)",Chrome 114.0.0.0,,,2023-06-16 19:54:52,2023-06-16 19:54:53,0.983s,PASSED
"callTestCase(findTestCase(""Andreas/Function/Registration Page/Input Email""), [""email"":email], STOP_ON_FAILURE)",Chrome 114.0.0.0,,,2023-06-16 19:54:53,2023-06-16 19:54:53,0.424s,PASSED
"callTestCase(findTestCase(""Andreas/Function/Registration Page/Input Password""), [""password"":password_def], STOP_ON_FAILURE)",Chrome 114.0.0.0,,,2023-06-16 19:54:53,2023-06-16 19:54:54,0.729s,PASSED
"callTestCase(findTestCase(""Andreas/Function/Registration Page/Click Daftar Registpage""), [:], STOP_ON_FAILURE)",Chrome 114.0.0.0,,,2023-06-16 19:54:54,2023-06-16 19:54:54,0.441s,PASSED
"callTestCase(findTestCase(""Andreas/Function/Registration Page/Veriify Failed""), [:], STOP_ON_FAILURE)",Chrome 114.0.0.0,,,2023-06-16 19:54:54,2023-06-16 19:54:55,0.813s,PASSED
Start listener action : afterTestCase,Chrome 114.0.0.0,,,2023-06-16 19:54:55,2023-06-16 19:54:56,1.099s,PASSED
,,,,,,,
Test Cases/Andreas/Step Definition/Feature Registration/REG04 - User want to register using registered email,Chrome 114.0.0.0,,,2023-06-16 19:54:56,2023-06-16 19:55:03,7.350s,PASSED
Start listener action : beforeTestCase,Chrome 114.0.0.0,,,2023-06-16 19:54:56,2023-06-16 19:54:58,1.987s,PASSED
"callTestCase(findTestCase(""Andreas/Function/Registration Page/Click Masuk Homepage""), [:], STOP_ON_FAILURE)",Chrome 114.0.0.0,,,2023-06-16 19:54:58,2023-06-16 19:54:59,0.408s,PASSED
"callTestCase(findTestCase(""Andreas/Function/Registration Page/Click Daftar Loginpage""), [:], STOP_ON_FAILURE)",Chrome 114.0.0.0,,,2023-06-16 19:54:59,2023-06-16 19:54:59,0.567s,PASSED
"callTestCase(findTestCase(""Andreas/Function/Registration Page/Input Nama Lengkap""), [""nama"":nama_def], STOP_ON_FAILURE)",Chrome 114.0.0.0,,,2023-06-16 19:54:59,2023-06-16 19:55:00,0.876s,PASSED
"callTestCase(findTestCase(""Andreas/Function/Registration Page/Input Email""), [""email"":email_def], STOP_ON_FAILURE)",Chrome 114.0.0.0,,,2023-06-16 19:55:00,2023-06-16 19:55:01,0.464s,PASSED
"callTestCase(findTestCase(""Andreas/Function/Registration Page/Input Password""), [""password"":password_def], STOP_ON_FAILURE)",Chrome 114.0.0.0,,,2023-06-16 19:55:01,2023-06-16 19:55:01,0.719s,PASSED
"callTestCase(findTestCase(""Andreas/Function/Registration Page/Click Daftar Registpage""), [:], STOP_ON_FAILURE)",Chrome 114.0.0.0,,,2023-06-16 19:55:01,2023-06-16 19:55:02,0.416s,PASSED
"callTestCase(findTestCase(""Andreas/Function/Registration Page/Verify Email Already Used""), [:], STOP_ON_FAILURE)",Chrome 114.0.0.0,,,2023-06-16 19:55:02,2023-06-16 19:55:03,0.833s,PASSED
Start listener action : afterTestCase,Chrome 114.0.0.0,,,2023-06-16 19:55:03,2023-06-16 19:55:03,0.772s,PASSED
