Suite/Test/Step Name,Browser,Description,Tag,Start time,End time,Duration,Status
Login Positive,Firefox 114.0,,,2023-06-16 15:23:19,2023-06-16 15:23:30,11.097s,ERROR
,,,,,,,
Test Cases/Andreas/Step Definition/Feature Login/LOG01 - User want to login using correct credentials,Firefox 114.0,,,2023-06-16 15:23:28,2023-06-16 15:23:30,1.777s,ERROR
Start listener action : afterTestCase,Firefox 114.0,,,2023-06-16 15:23:28,2023-06-16 15:23:30,1.711s,PASSED
