Suite/Test/Step Name,Browser,Description,Tag,Start time,End time,Duration,Status
Daftar Transaksi Negative,Chrome 114.0.0.0,,,2023-06-30 18:47:44,2023-06-30 18:49:10,1m - 25.497s,PASSED
,,,,,,,
Test Cases/Samuel/Step Definition/Feature Daftar Transaksi/DAF02 - User does not have a product interaction or transaction,Chrome 114.0.0.0,,,2023-06-30 18:47:49,2023-06-30 18:49:10,1m - 21.278s,PASSED
Start listener action : beforeTestCase,Chrome 114.0.0.0,,,2023-06-30 18:47:49,2023-06-30 18:47:52,3.502s,PASSED
"callTestCase(findTestCase(""Samuel/Pages/Daftar Transaksi/LoginUserEmptyTransaction""), [:], STOP_ON_FAILURE)",Chrome 114.0.0.0,,,2023-06-30 18:47:52,2023-06-30 18:48:01,8.700s,PASSED
"callTestCase(findTestCase(""Samuel/Pages/Daftar Transaksi/NavigateToDaftarTransaksi""), [:], STOP_ON_FAILURE)",Chrome 114.0.0.0,,,2023-06-30 18:48:01,2023-06-30 18:48:03,2.075s,PASSED
"callTestCase(findTestCase(""Samuel/Pages/Daftar Transaksi/VerifyEmptyTransaction""), [:], STOP_ON_FAILURE)",Chrome 114.0.0.0,,,2023-06-30 18:48:03,2023-06-30 18:49:09,1m - 5.765s,PASSED
Start listener action : afterTestCase,Chrome 114.0.0.0,,,2023-06-30 18:49:09,2023-06-30 18:49:10,0.785s,PASSED
