Suite/Test/Step Name,Browser,Description,Tag,Start time,End time,Duration,Status
Daftar Jual Saya,Chrome 114.0.0.0,,,2023-06-30 18:45:24,2023-06-30 18:45:45,21.910s,PASSED
,,,,,,,
Test Cases/Samuel/Step Definition/Feature Daftar Jual Saya/DJS01 - User wants to check all products they have,Chrome 114.0.0.0,,,2023-06-30 18:45:30,2023-06-30 18:45:45,15.940s,PASSED
Start listener action : beforeTestCase,Chrome 114.0.0.0,,,2023-06-30 18:45:30,2023-06-30 18:45:33,3.775s,PASSED
"callTestCase(findTestCase(""Samuel/Pages/Login/User Login""), [:], STOP_ON_FAILURE)",Chrome 114.0.0.0,,,2023-06-30 18:45:34,2023-06-30 18:45:40,6.092s,PASSED
"callTestCase(findTestCase(""Samuel/Pages/Daftar Jual Saya/Navigate to Daftar Jual saya Page""), [:], STOP_ON_FAILURE)",Chrome 114.0.0.0,,,2023-06-30 18:45:40,2023-06-30 18:45:41,1.383s,PASSED
"callTestCase(findTestCase(""Samuel/Pages/Daftar Jual Saya/Verify Element""), [:], STOP_ON_FAILURE)",Chrome 114.0.0.0,,,2023-06-30 18:45:41,2023-06-30 18:45:45,3.446s,PASSED
Start listener action : afterTestCase,Chrome 114.0.0.0,,,2023-06-30 18:45:45,2023-06-30 18:45:45,0.799s,PASSED
